Correction for meta-analysis with multiple biases — multibias_meta • multibiasmeta
…
    Mathur MB (2022).
“Sensitivity analysis for the interactive effects of internal bias and publication bias in meta-analyses.”
doi:10.31219/osf.io/u7vcb
, osf.io/u7vcb.

    Examples

# publication bias without internal bias
multibias_meta(yi = meta_meat$yi,
               vi = meta_meat$vi,
               selection_ratio = 4,
               bias_affirmative = 0,
               bias_nonaffirmative = 0)
#> $data
#> # A tibble: 100 × 9
#>          yi      vi    sei biased cluster affirmative   yi_adj weight userweight
#>       <dbl>   <dbl>  <dbl> <lgl>    <int> <lgl>          <dbl>  <dbl>      <dbl>
#>  1 -0.388   0.114   0.337  TRUE         1 FALSE       -0.388        4       26.0
#>  2  0.00143 0.00818 0.0904 TRUE         2 FALSE        0.00143      4       83.5
#>  3 -0.0778  0.0156  0.125  TRUE         3 FALSE       -0.0778       4       72.2
#>  4  0.395   0.0567  0.238  TRUE         4 FALSE        0.395        4       41.5
#>  5  0.109   0.006   0.0775 TRUE         5 FALSE        0.109        4       87.5
#>  6  0.0711  0.00110 0.0332 TRUE         6 TRUE         0.0711       1       24.5
#>  7  0.177   0.00629 0.0793 TRUE         7 TRUE         0.177        1       21.7
#>  8  0.123   0.0161  0.127  TRUE         8 FALSE        0.123        4       71.6
#>  9  0.310   0.0169  0.130  TRUE         9 TRUE         0.310        1       17.7
#> 10  0.229   0.0154  0.124  TRUE        10 FALSE        0.229        4       72.5
#> # … with 90 more rows
…
# publication bias and internal bias in the non-randomized studies
multibias_meta(yi = meta_meat$yi,
               vi = meta_meat$vi,
               biased = !meta_meat$randomized,
               selection_ratio = 4,
               bias_affirmative = log(1.5),
               bias_nonaffirmative = log(1.1))
#> $data
#> # A tibble: 100 × 9
#>          yi      vi    sei biased cluster affirmative  yi_adj weight userweight
#>       <dbl>   <dbl>  <dbl> <lgl>    <int> <lgl>         <dbl>  <dbl>      <dbl>
#>  1 -0.388   0.114   0.337  TRUE         1 FALSE       -0.514       4       25.4
#>  2  0.00143 0.00818 0.0904 TRUE         2 FALSE       -0.124       4       77.1
#>  3 -0.0778  0.0156  0.125  TRUE         3 FALSE       -0.204       4       67.4
#>  4  0.395   0.0567  0.238  FALSE        4 FALSE        0.395       4       39.8
#>  5  0.109   0.006   0.0775 FALSE        5 FALSE        0.109       4       80.5
#>  6  0.0711  0.00110 0.0332 FALSE        6 TRUE         0.0711      1       22.3
#>  7  0.177   0.00629 0.0793 FALSE        7 TRUE         0.177       1       20.0
#>  8  0.123   0.0161  0.127  FALSE        8 FALSE        0.123       4       66.9
#>  9  0.310   0.0169  0.130  FALSE        9 TRUE         0.310       1       16.5
#> 10  0.229   0.0154  0.124  FALSE       10 FALSE        0.229       4       67.6
#> # … with 90 more rows
…
# treat all studies as biased, not just non-randomized ones
multibias_meta(yi = meta_meat$yi,
               vi = meta_meat$vi,
               biased = TRUE,
               selection_ratio = 4,
               bias_affirmative = log(1.5),
               bias_nonaffirmative = log(1.1))
#> $data
#> # A tibble: 100 × 9
#>          yi      vi    sei biased cluster affirmative   yi_adj weight userweight
#>       <dbl>   <dbl>  <dbl> <lgl>    <int> <lgl>          <dbl>  <dbl>      <dbl>
#>  1 -0.388   0.114   0.337  TRUE         1 FALSE       -0.507        4       26.0
#>  2  0.00143 0.00818 0.0904 TRUE         2 FALSE       -0.118        4       83.5
#>  3 -0.0778  0.0156  0.125  TRUE         3 FALSE       -0.197        4       72.2
#>  4  0.395   0.0567  0.238  TRUE         4 FALSE        0.276        4       41.5
#>  5  0.109   0.006   0.0775 TRUE         5 FALSE       -0.00997      4       87.5
#>  6  0.0711  0.00110 0.0332 TRUE         6 TRUE        -0.0480       1       24.5
#>  7  0.177   0.00629 0.0793 TRUE         7 TRUE         0.0574       1       21.7
#>  8  0.123   0.0161  0.127  TRUE         8 FALSE        0.00428      4       71.6
#>  9  0.310   0.0169  0.130  TRUE         9 TRUE         0.191        1       17.7
#> 10  0.229   0.0154  0.124  TRUE        10 FALSE        0.109        4       72.5
#> # … with 90 more rows
…
