Metabias packages tutorial • multibiasmeta
…
The example dataset meta_meat is from a meta-analysis
that assessed the effectiveness of educational behavior interventions
that attempt to reduce meat consumption by appealing to animal welfare
(Mathur et al, 2021). The
meta-analysis included 100 studies (from 34 articles) that measured
behavioral or self-reported outcomes related to meat consumption or
purchasing. Point estimates (yi) are on the log relative
risk (RR) scale. The variable cluster corresponds to the
paper that contributed the point estimate, and randomized
is a boolean indicating whether the study was randomized.

meta_meat
#> # A tibble: 100 × 4
#>          yi      vi cluster        randomized
#>       <dbl>   <dbl> <chr>          <lgl>     
#>  1 -0.388   0.114   ACE 2013a      FALSE     
#>  2  0.00143 0.00818 ACE 2013a      FALSE     
#>  3 -0.0778  0.0156  ACE 2013b      FALSE     
#>  4  0.395   0.0567  Amiot 2018     TRUE      
#>  5  0.109   0.006   Anderson 2016  TRUE      
#>  6  0.0711  0.00110 Anderson 2017  TRUE      
#>  7  0.177   0.00629 Anderson 2017  TRUE      
#>  8  0.123   0.0161  Bertolaso 2015 TRUE      
#>  9  0.310   0.0169  Bertolaso 2015 TRUE      
#> 10  0.229   0.0154  Bertolaso 2015 TRUE      
#> # … with 90 more rows
…
